{
  "ambientDependencies": {
    "es6-shim": "github:DefinitelyTyped/DefinitelyTyped/es6-shim/es6-shim.d.ts#6697d6f7dadbf5773cb40ecda35a76027e0783b2",
    "jquery": "github:DefinitelyTyped/DefinitelyTyped/jquery/jquery.d.ts#470954c4f427e0805a2d633636a7c6aa7170def8",
    "materialize-css": "github:DefinitelyTyped/DefinitelyTyped/materialize-css/materialize-css.d.ts#a9b8a853e04f000ee3b1c0daed5daaf51890b0ed"
  }
}
